<<if $sexstart is 1>>
<<set $sexstart to 0>>
<<consensual>>
<<set $consensual to 1>>
<<neutral 1>>

<<maninit>>
<<set $enemytrust += 50>>

<</if>>

<<effects>>
<<effectsman>><<man>>

<<audience>><!-- Added NPCDamage -->
<<if $enemyhealth gt 0>><<npcdamage>><</if>>

<<stateman>>
<br><br>
<<actionsman>>

<<if $finish is 1>>
	<span id="next"><<link [[Next|Beach Strip Sex Finish]]>><</link>></span><<nexttext>>
<<elseif $enemyhealth lte 0>>
	<span id="next"><<link [[Next|Beach Strip Sex Finish]]>><</link>></span><<nexttext>>
<<elseif $enemyarousal gte $enemyarousalmax>>
	<span id="next"><<link [[Next|Beach Strip Sex Finish]]>><</link>></span><<nexttext>>
<<else>>
	<span id="next"><<link [[Next|Beach Strip Sex]]>><</link>></span><<nexttext>>
<</if>>