<<if $enemyhealth lte 0>>

You manage to push the <<person2>><<person>> out of the way. <<tearful>> you flee from the building.
<br><br>

<<clotheson>>
<<endcombat>>

<<link [[Next|Danube Street]]>><</link>>
<<elseif $enemyarousal gte $enemyarousalmax>>
<<ejaculation>>

<<person2>>"I got the money," pants the <<personstop>>
<br><br>

"You got off lightly," the <<person1>><<person>> says, as the <<person2>><<person>> shoves you out the door. <<tearful>> you rise to your feet.
<br><br>

	<<if $phase is 3>>
	<<set $money -= 1000>>
	<<elseif $phase is 4>>
	<<set $money -= 3000>>
	<<elseif $phase is 5>>
	<<set $money -= 10000>>
	<</if>>

<<clotheson>>
<<endcombat>>

<<link [[Next|Danube Street]]>><</link>>

<<else>>

<<person2>>"I got the money," says the <<personstop>>
<br><br>

<<person1>>"Good," says the <<personstop>> "Throw <<phim>> out."
<br><br>

The <<person2>><<person>> shoves you out the door. <<tearful>> you rise to your feet, doing your best to keep your <<lewdness>> covered.
<br><br>

	<<if $phase is 3>>
	<<set $money -= 1000>>
	<<elseif $phase is 4>>
	<<set $money -= 3000>>
	<<elseif $phase is 5>>
	<<set $money -= 10000>>
	<</if>>

<<stealclothes>>

<<clotheson>>
<<endcombat>>

<<link [[Next|Danube Street]]>><</link>>

<</if>>