<<set $outside to 1>><<set $location to "home">><<effects>>

<<if $rng gte 81>>
You push the <<person>> away from you, but <<he>> doesn't relent.
<br><br>

<<link [[Next|Garden Sex]]>><<set $molestationstart to 1>><</link>>
<br>
<<else>>
You push the <<person>> away from you. <<He>> avoids eye contact and makes <<his>> way back to <<his>> friends.
<br><br>

<<link [[Next|Garden]]>><<endevent>><</link>>
<br>
<</if>>