<<widget "playWithBreasts">><<nobr>>
<<if $args[0]>>
	<<set $sexStats.breasts.playedWith += $args[0]>>
<<else>>
	<<set $sexStats.breasts.playedWith++>>
<</if>>
<</nobr>><</widget>>

/*<<creampie "npc" "anus" >> -- <<set $sexStats.creampie.npc.anus++>>*/
/*<<creampie "self" "mouth">> -- <<set $sexStats.creampie.self.mouth++>>*/