<<set $outside to 0>><<set $location to "town">><<effects>>

<<if $enemyhealth lte 0>>

You push <<him>> backwards and <<he>> trips over a branch. <<tearful>> you lose <<him>> between the trees.

<<elseif $enemyarousal gte $enemyarousalmax>>

<<ejaculation>>

"Thanks babe. I'll let my friends know who to see if they need a slut." <<He>> saunters into the woods. <<tearful>> you climb to your feet.
<br><br>

	<<if $phase is 1>>
	You've made £20.
	<<set $money += 2000>><<set $pubwhore += 1>><<set $prostitutionstat += 1>><<fameprostitution 1>>
	<<elseif $phase is 2>>
	You've made £50.
	<<set $money += 5000>><<set $pubwhore += 1>><<set $prostitutionstat += 1>><<fameprostitution 1>>
	<<elseif $phase is 3>>
	You've made £100.
	<<set $money += 10000>><<set $pubwhore += 1>><<set $prostitutionstat += 1>><<fameprostitution 1>>
	<</if>>

<<else>>

"Make up your damn mind," <<he>> says, exasperated. <<He>> picks up <<his>> jacket and heads into the forest. <<tearful>> you climb to your feet.

<</if>>
<br><br>

<<clotheson>>

<<endcombat>>

<<link [[Next|Forest]]>><</link>>