<<set $outside to 1>><<set $location to "town">><<effects>><<set $bus to "starfish">>
You are on Starfish Street. Wind blows in from the ocean.
<<if $daystate is "day">>
	<<if $weather is "rain">>
		Part of the road is covered in wet sand.
	<<else>>
		There's a lot of noise coming from the dock.
	<</if>>
<<elseif $daystate is "dawn">>
	You can already hear activity from the dock.
<<elseif $daystate is "dusk">>
	The dock remains noisy, even at this hour.
<<elseif $daystate is "night">>
	You hear nothing but the sea.
<</if>>
<<streeteffects>>
<br><br>
<<if $exposed gte 1>>
	<<exhibitionism "street">>
	<<if $exposed is 1 and $topless is 0>>
		<span class="lewd">This outfit might be fine on the nearby beach, but here it's too lewd!</span>
		<br><br>
	<</if>>
<</if>>
<<if $arousal gte 10000>>
	<<orgasmstreet>>
<</if>>

<<if $stress gte 10000>>
	<<passoutstreet>>
<<else>>
	<<set $danger to random(1, 10000)>><<set $dangerevent to 0>>
	<<if $danger gte (9900 - $allure) and $eventskip is 0>>
		<<eventsstreet>>
	<<else>>
		<<if $map.top is true>>
			<<map "starfish">>
			<br>
		<</if>>
		Places of Interest
		<br>
		<<link [[Beach (0:05)|Beach]]>><<pass 5>><</link>>
		<br>
		<<if $daystate is "day" or $daystate is "dusk">>
		<<link [[Arcade (0:01)|Arcade]]>><<pass 1>><</link>>
		<br>
		<<else>>
		<<link [[Arcade (0:01)|Arcade Lock]]>><<pass 1>><</link>>
		<br>
		<</if>>
		<br>
		<<if $exposed gte 1 and $daystate isnot "night">>
		<<else>>
			<<add_link "Travel<br>">><<hideDisplay>>
			<<cliff>>
			<<mer>>
			<<high>>
			<<oxford>>
			<<if $exposed lte 0>>
				<<buswait>>
			<</if>>
			<<loiter>>
		<</if>>
		<<add_link "<br>Alternate Routes<br>">><<hideDisplay>>
		<<park>>
		<<stormdrain>>
		<<displayLinks>>
		<<if $map.top isnot true>>
			<br>
			<<map "starfish">>
		<</if>>
	<</if>>
<</if>>
<<set $eventskip to 0>>