<<widget "mer">><<nobr>>

<<add_link "<<mericon>><<link [[Mer Street (0:05) (Docks)|Mer Street]]>><<pass 5>><</link>><br>">>
<<hideDisplay true>>
<</nobr>><</widget>>

<<widget "merquick">><<nobr>>

<<link [[Mer Street|Mer Street]]>><</link>>

<</nobr>><</widget>>

<<widget "mereventend">><<nobr>>

<<link [[Next|Mer Street]]>><<set $eventskip to 1>><</link>>

<</nobr>><</widget>>