<<if $molestationstart is 1>>
	<<set $molestationstart to 0>>
	<<controlloss>>
	<<violence 1>>
	<<neutral 1>>
	<<molested>>
	<<maninit>><<npcspank>><<set $enemyhealth to 600>><<set $enemyhealthmax to 600>><<set $enemyanger += 200>>
	<<if $phase is 1>>
		<<set $enemyanger -= 75>>
	<</if>>
	<<He>> bends you over <<his>> knee.
	<br><br>
<</if>>

<<effects>>

<<effectsman>><<man>>

<<stateman>>
<br><br>
<<actionsman>>

<<if $enemyhealth lte 0>>
	<span id="next"><<link [[Next|Eden Recaptured Spank Finish]]>><</link>></span><<nexttext>>
<<elseif $enemyarousal gte $enemyarousalmax>>
	<span id="next"><<link [[Next|Eden Recaptured Spank Finish]]>><</link>></span><<nexttext>>
<<elseif $enemyanger lte 0>>
	<span id="next"><<link [[Next|Eden Recaptured Spank Finish]]>><</link>></span><<nexttext>>
<<else>>
	<span id="next"><<link [[Next|Eden Recaptured Spank]]>><</link>></span><<nexttext>>
<</if>>