<<if $molestationstart is 1>>
	<<set $molestationstart to 0>>
	<<controlloss>>
	<<violence 1>>
	<<neutral 1>>
	<<molested>>

	<<beastTrainGenerate 1 "wolf">>
	<<beastNEWinit 1 wolf>><<set $enemytrust -= 40>>
<</if>>

<<effects>>
<<effectsman>>
<br>
<<beast $enemyno>>
<br><br>

<<stateman>>
<br><br>
<<actionsman>>

<<if $enemyarousal gte $enemyarousalmax>>
	<span id="next"><<link [[Next|Forest Wolf2 Finish]]>><</link>></span><<nexttext>>
<<elseif $enemyhealth lte 0>>
	<span id="next"><<link [[Next|Forest Wolf2 Finish]]>><</link>></span><<nexttext>>
<<else>>
	<span id="next"><<link [[Next|Forest Wolf2]]>><</link>></span><<nexttext>>
<</if>>