<<widget "ejaculation-gloryhole">><<nobr>>
<<set $ejaculating to 1>>

<<if $sexavoid is 0 or $rapeavoid is 0>>
	<<if $consensual is 1>>
		<<famesex 1>>
	<<else>>
		<<famerape 1>>
	<</if>>
<</if>>
<<if $exposed is 1>>
	<<fameexhibitionism 1>>
<<elseif $exposed gte 2>>
	<<fameexhibitionism 2>>
<</if>>

<<if $NPCList[0].pronoun is "m">>
	<<set $pronoun to "m">>
<</if>>
<<if $NPCList[0].pronoun is "f">>
	<<set $pronoun to "f">>
<</if>>
<<if $NPCList[0].pronoun is "i">>
	<<set $pronoun to "i">>
<</if>>
<<if $NPCList[0].pronoun is "n">>
	<<set $pronoun to "n">>
<</if>>
<<if $NPCList[0].pronoun is "t">>
	<<set $pronoun to "t">>
<</if>>

<<if $enemytype is "man">>
	<<set $NPCList[0].intro to 1>>
<<else>>
	<<set $pronoun to "i">>
<</if>>

<!-- Gloryhole encounter assumes NPC cannot reach or see PC and vice versa. Assumes NPCs believe PC may have following combat. Assumes all other forms of finishing in place and encounters can be either consens or non-consens. Non-consens encounters assume PC is restrained to hole with no arms available, though genital encounters were left in place in case of future use-->
<!-- Currently non-consens gloryhole is oral-only and so focus is on these cases; the rear-body non-consens is captured by $position="wall". As game changes this can be reviewed -->
<!-- Consens gloryhole has all combat options available currently. -->

/% DEBUG POS:$position POS2:$punishmentposition<br> %/
/% DEBUG NPCF $NPCList[0].vagina NPCM $NPCList[0].penis<br> %/

<!-- Female Gender NPC1 at WALL -->
<<if $NPCList[0].gender is "f">>
	<<if $consensual is 1>>
		<<if $NPCList[0].vagina is "footjob">>
			<<He>> gasps as <<he>> cums.
			<br><br>
		<<elseif $NPCList[0].vagina is "feet">>
			<<switch random(1, 7)>>
			<<case 1 2 3>>
				<<He>> groans as <<he>> cums; ejaculate covers your feet.
				<br><br>
				<<feetejacstat>><<ejacstat>><<set $hygiene += 500>><<set $feetsemen += 1>>
			<<case 4 5 6>>
				<<He>> quietly cums on your feet, slickening them with ejaculate.
				<br><br>
				<<feetejacstat>><<ejacstat>><<set $hygiene += 500>><<set $feetsemen += 1>>
			<<case 7>>
				<<He>> grunts and rubs <<his>> cunt on your feet as <<he>> cums, splattering your feet and legs with ejaculate.
				<br><br>
				<<feetejacstat>><<ejacstat>><<set $hygiene += 500>><<set $feetsemen += 1>>
				<<thighejacstat>><<ejacstat>><<set $hygiene += 500>><<set $thighsemen += 1>>
			<</switch>>
		<<elseif $NPCList[0].vagina is "leftarm" or $NPCList[0].vagina is "rightarm">>
			<<switch random(1, 5)>>
			<<case 1 2>>
				<<He>> sighs as you finish with <<his>> pussy, shaking <<his>> thighs together against your hand as <<his>> body convulses.
				<br><br>
				<<handejacstat>><<ejacstat>><<set $hygiene += 500>><<set $leftarmgoo += 1>>
			<<case 3 4>>
				<<He>> cums silently, cunt twitching against your hand uncontrollably.
				<br><br>
				<<handejacstat>><<ejacstat>><<set $hygiene += 500>><<set $leftarmgoo += 1>>
			<<case 5>>
				<<He>> screams, grabbing your hand and fucking <<his>> pussy with your fingers. Your fingers are soaked in ejaculate.
				<br><br>
				<<handejacstat>><<ejacstat>><<set $hygiene += 500>><<set $leftarmgoo += 1>>
			<</switch>>
		<<elseif $NPCList[0].vagina is "vagina">>
			<<switch random(1, 5)>>
			<<case 1 2>>
				<<He>> groans as <<he>> cums, dragging <<his>> wet pussy across yours. "That was so good."
				<br><br>
				<<thighejacstat>><<ejacstat>><<set $hygiene += 500>><<set $thighgoo += 1>>
			<<case 3 4>>
				<<He>> moans as <<he>> grinds downs hard on your <<pussycomma>>.
				<br><br>
				<<vaginalentranceejacstat>><<ejacstat>><<set $hygiene += 500>><<set $vaginaoutsidegoo += 1>>
			<<case 5>>
				<<He>> screams, mashing <<his>> crotch against the wall. Ejaculate streams from <<his>> pussy, drenching your exposed legs. <<He>> giggles, "I hope I didn't make too much of a mess."
				<br><br>
				<<vaginalentranceejacstat>><<ejacstat>><<set $hygiene += 500>><<set $vaginaoutsidegoo += 1>>
				<<thighejacstat>><<ejacstat>><<set $hygiene += 500>><<set $thighgoo += 1>>
			<</switch>>
		<<elseif $NPCList[0].vagina is "othermouth">>
			<<He>> shakes with arousal as <<he>> cums, withdrawing <<his>> face from the hole.
			<br><br>
		<<elseif $NPCList[0].vagina is "lefthand" or $NPCList[0].vagina is "righthand">>
			<<He>> moans as <<he>> cums. "You must enjoy being used like this."
			<br><br>
		<<elseif $NPCList[0].vagina is "mouthentrance" or $NPCList[0].vagina is "mouthimminent">>
			<<switch random(1, 5)>>
			<<case 1 2>>
				<<He>> groans and grinds <<his>> crotch against your face; you feel the wall shake as <<he>> cums on your mouth.
				<br><br>
				<<faceejacstat>><<ejacstat>><<set $hygiene += 500>><<set $facegoo += 1>>
			<<case 3 4>>
				<<He>> ejaculates on your face, rubbing <<his>> clit against your nose as <<he>> finished. You feel cum running down your nose and lips.
				<br><br>
				<<faceejacstat>><<ejacstat>><<set $hygiene += 500>><<set $facegoo += 1>>
			<<case 5>>
				<<He>> rubs <<his>> clit rapidly, squirting your face through the hole with cum. You feel slime running down your face and neck.
				<br><br>
				<<faceejacstat>><<ejacstat>><<set $hygiene += 1000>><<set $facegoo += 2>>
			<</switch>>
		<<elseif $NPCList[0].vagina is "mouth">>
			<<switch random(1, 5)>>
			<<case 1 2>>
				<<He>> groans and grinds <<his>> crotch roughly against your mouth; you feel the wall shake as <<he>> cums into your waiting mouth.
				<br><br>
				<<faceejacstat>><<ejacstat>><<set $hygiene += 500>><<set $facegoo += 1>>
			<<case 3 4>>
				<<He>> ejaculates into your mouth, grinding <<his>> cunt against the wall as <<he>> finishes. You feel ejaculate running down your throat.
				<br><br>
				<<faceejacstat>><<ejacstat>><<set $hygiene += 500>><<set $facegoo += 1>>
			<<case 5>>
				<<He>> rubs <<his>> clit rapidly, squirting into your open mouth. You feel cum running down your throat and dripping off your chin.
				<br><br>
				<<faceejacstat>><<ejacstat>><<set $hygiene += 1000>><<set $facegoo += 2>>
			<</switch>>
		<!-- following appear to be Male PC to Female Antagonist only? -->
		<<elseif $NPCList[0].vagina is "otheranus">>
			<<He>> shakes as <<he>> cums, driving your cock deeply into <<his>> ass as <<he>> releases a final moan.
			<br><br>
		<<elseif $NPCList[0].vagina is "penis">>
			<<He>> drives <<his>> pussy hard against your cock as <<he>> shudders with pleasure.
			<br><br>
		<<elseif $NPCList[0].vagina is "penisimminent" or $NPCList[0].vagina is "penisentrance">>
			<<He>> moans as <<he>> cums on your throbbing cock.
			<br><br>
		<<elseif $NPCList[0].vagina is "otheranusfrot" or $NPCList[0].vagina is "otheranusentrance">>
			<<He>> swivels <<his>> ass against your cock as <<he>> cums.
			<br><br>
		<<elseif $NPCList[0].vagina is "frot">>
			<<He>> pushes against the wall, rubbing <<his>> clit hard against your cock as <<he>> cums.
			<br><br>
		<!-- Special case male PC with female NPC -->
		<<elseif $NPCList[0].mouth is "penis">>
			<<He>> cums as <<he>> sucks your <<peniscomma>> dropping away as <<he>> gasps for air.
			<br><br>
		<<else>>
			<<switch random(1, 3)>>
			<<case 1 2>>
				<<He>> groans and rubs <<his>> clit, spraying your face with ejaculate through the hole.
				<br><br>
				<<faceejacstat>><<ejacstat>><<set $hygiene += 500>><<set $facegoo += 1>>
			<<case 3>>
				<<He>> moans as <<he>> ejaculates onto <<his>> thighs.
				<br><br>
			<</switch>>
		<</if>>
	<<else>><!-- Start non-consensual -->
		<<if $NPCList[0].vagina is "mouthentrance" or $NPCList[0].vagina is "mouthimminent">>
			<<switch random(1, 5)>>
			<<case 1 2>>
				<<He>> groans and grinds <<his>> clit roughly against your restrained face; you feel the wall shake as <<he>> cums on your mouth.
				<br><br>
				<<faceejacstat>><<ejacstat>><<set $hygiene += 500>><<set $facegoo += 1>>
			<<case 3 4>>
				<<He>> ejaculates on your face, rubbing <<his>> clit against your nose as <<he>> finished. You feel goo running down your nose and lips.
				<br><br>
				<<faceejacstat>><<ejacstat>><<set $hygiene += 500>><<set $facegoo += 1>>
			<<case 5>>
				<<He>> rubs <<his>> clit rapidly, squirting your face through the hole with cum. You try futilely to back away but your restraints hold you in place; you feel slime running down your face and neck.
				<br><br>
			<<faceejacstat>><<ejacstat>><<set $hygiene += 1000>><<set $facegoo += 2>>
			<</switch>>
		<<elseif $NPCList[0].vagina is "mouth">>
			<<switch random(1, 5)>>
			<<case 1 2>>
				<<He>> groans and grinds <<his>> crotch roughly against your tongue; you feel the wall shake as <<he>> cums into your waiting mouth.
				<br><br>
				<<faceejacstat>><<ejacstat>><<set $hygiene += 500>><<set $facegoo += 1>>
			<<case 3 4>>
				<<He>> ejaculates into your mouth, grinding <<his>> cunt against the wall as <<he>> finishes. You feel ejaculate running down your throat.
				<br><br>
				<<faceejacstat>><<ejacstat>><<set $hygiene += 500>><<set $facegoo += 1>>
			<<case 5>>
				<<He>> rubs <<his>> clit rapidly, squirting into your open mouth. You try futilely to back away but your restraints hold you in place; you feel cum running down your throat and dripping off your chin. "I hope you were thirsty, you little slut."
				<br><br>
				<<faceejacstat>><<ejacstat>><<set $hygiene += 1000>><<set $facegoo += 2>>
			<</switch>>
		<<else>>
			<<switch random(1, 3)>>
			<<case 1 2>>
				<<He>> groans and rubs <<his>> clit, spraying your restrained face with ejaculate through the hole. Goo drips from your face and down the wall.
				<br><br>
				<<faceejacstat>><<ejacstat>><<set $hygiene += 500>><<set $facegoo += 1>>
			<<case 3>>
				<<He>> moans as he ejaculates onto <<his>> thighs. <<He>> reaches through the wall, <span class="purple"> shoving <<his>> fingers down your throat.</span> You gag and retch as <<he>> laughs. "Such a disgusting little piggy."
				<br><br>
			<</switch>>
		<</if>>
	<</if>>
<</if>>

<!-- Male Gender NPC1 at WALL -->
<<if $NPCList[0].gender is "m">>
	<!-- Start simplified strap-on sub-case -->
	<<if $NPCList[0].penisdesc.includes("strap-on")>>
		<<if $consensual is 0>><!-- Non-consen strap-on case -->
			<<switch $NPCList[0].penis>>
			<<case "vagina" "vaginaimminent" "vaginaentrance" "anus" "anusentrance" "anusimminent" "thighs">>
				<<switch random(1, 3)>>
				<<case 1>>
					<<He>> shakes as <<he>> cums, slapping you across the ass with <<his>> $NPCList[0].penisdesc.
					<br><br>
				<<case 2>>
					<<He>> cums loudly, then spanks your ass with <<his>> $NPCList[0].penisdesc. "Something to remember me by, whore."
					<br><br>
				<<case 3>>
					<<He>> cums quietly, rubbing <<his>> $NPCList[0].penisdesc along your back.
					<br><br>
				<</switch>>
			<<case "mouth">>
				<<He>> cums loudly, shoving <<his>> $NPCList[0].penisdesc deep into your throat, making you gag. Tears stream down your face.
				<br><br>
			<<case "mouthentrance" "mouthimminent" "chest" "lefthand" "righthand">>
				<<switch random(1, 3)>>
				<<case 1>>
					<<He>> shakes as <<he>> cums, slapping you across the face with <<his>> $NPCList[0].penisdesc.
					<br><br>
				<<case 2>>
					<<He>> cums loudly, then laughs, wiping <<his>> $NPCList[0].penisdesc of on your hair.
					<br><br>
				<<case 3>>
					<<He>> cums silently, mouth agape, rubbing <<his>> $NPCList[0].penisdesc against your cheek.
					<br><br>
				<</switch>>
			<<default>>
				<<He>> moans as <<he>> cums, rubbing <<his>> clit with the base of <<his>> $NPCList[0].penisdesc.
				<br><br>
			<</switch>>
		<<else>><!-- Consensual strap-on case -->
			<<switch $NPCList[0].penis>>
			<<case "vagina" "vaginaimminent" "vaginaentrance" "anus" "anusentrance" "anusimminent" "thighs">>
				<<He>> shakes as <<he>> cums, wiping <<his>> $NPCList[0].penisdesc off on your ass.
				<br><br>
			<<case "mouth">>
				<<He>> cums loudly, grinding <<his>> $NPCList[0].penisdesc against <<his>> own crotch with <<his>> hand as <<he>> cums.
				<br><br>
			<<case "mouthentrance" "mouthimminent" "chest" "lefthand" "righthand">>
				<<He>> cums silently, mouth agape, rubbing <<his>> $NPCList[0].penisdesc against your cheek.
				<br><br>
			<<default>>
				<<He>> moans as <<he>> cums, rubbing <<his>> clit with the base of <<his>> $NPCList[0].penisdesc.
				<br><br>
			<</switch>>
		<</if>>
	<<elseif $consensual is 1>>
		<<if $NPCList[0].penis is "idle">>
			<<He>> groans as a wet patch forms on <<his>> trousers. You laugh at the pathetic display.
			<br><br>
		<<elseif $NPCList[0].penis is "thighs">>
			<<switch random(1, 7)>>
			<<case 1 2 3>>
				<<He>> shakes as <<he>> cums, pulling <<his>> cock out and ejaculating onto the backs of your thighs. You feel <<him>> wipe <<his>> cock clean on your ass.
				<br><br>
				<<thighejacstat>><<ejacstat>><<set $hygiene += 500>><<set $thighsemen += 1>>
			<<case 4 5 6>>
				<<He>> slams <<his>> crotch hard into your ass as <<he>> cums and ejaculates onto your tummy and the wall.
				<br><br>
				<<tummyejacstat>><<ejacstat>><<set $hygiene += 500>><<set $tummysemen += 1>>
			<<case 7>>
				<<He>> groan as <<he>> cums, ejaculating a massive load that covers your thighs and tummy; cum drips cooly down your legs, pooling on the ground.
				<br><br>
				<<thighejacstat>><<ejacstat>><<set $hygiene += 500>><<set $thighsemen += 1>>
				<<tummyejacstat>><<ejacstat>><<set $hygiene += 500>><<set $tummysemen += 1>>
			<</switch>>
		<<elseif $NPCList[0].penis is "vaginaentrance">>
			<<switch random(1, 7)>>
			<<case 1 2 3>>
				<<He>> groans as <<he>> ejaculates onto your <<pussystop>> You feel semen coating your outer lips and pooling around your knees.
				<br><br>
				<<vaginalentranceejacstat>><<ejacstat>><<set $hygiene += 500>><<set $vaginaoutsidesemen += 1>>
			<<case 4 5 6>>
				<<He>> strokes <<his>> cock and ejaculates onto your <<pussy>> without a word, sending streams of semen running down your cunt; you can feel <<him>> flicking <<his>> cock dry on your ass.
				<br><br>
				<<vaginalentranceejacstat>><<ejacstat>><<set $hygiene += 500>><<set $vaginaoutsidesemen += 1>>
			<<case 7>>
				<<He>> moans and strokes <<his>> cock as <<he>> cums, sending thick ropes of semen onto your <<pussy>> and ass.
				<br><br>
				<<vaginalentranceejacstat>><<ejacstat>><<set $hygiene += 500>><<set $vaginaoutsidesemen += 1>>
				<<bottomejacstat>><<ejacstat>><<set $hygiene += 500>><<set $bottomsemen += 1>>
			<</switch>>
		<<elseif $NPCList[0].penis is "vaginaimminent">>
			<<switch random(1, 7)>>
			<<case 1 2 3>>
				<<He>> cums before <<he>> can penetrate your <<pussycomma>> ejaculating on the outside. Semen coats your outer lips and tummy.
				<br><br>
				<<vaginalentranceejacstat>><<ejacstat>><<set $hygiene += 500>><<set $vaginaoutsidesemen += 1>>
			<<case 4 5 6>>
				<<He>> ejaculates onto your <<pussy>> before <<he>> can penetrate you, sending warm streams of semen running down your cunt; <<he>> groans in disappointment.
				<br><br>
				<<vaginalentranceejacstat>><<ejacstat>><<set $hygiene += 500>><<set $vaginaoutsidesemen += 1>>
			<<case 7>>
				<<He>> moans and strokes <<his>> cock as <<he>> cums, sending thick ropes of semen onto your <<pussy>> and ass.
				<br><br>
				<<vaginalentranceejacstat>><<ejacstat>><<set $hygiene += 500>><<set $vaginaoutsidesemen += 1>>
				<<bottomejacstat>><<ejacstat>><<set $hygiene += 500>><<set $bottomsemen += 1>>
			<</switch>>
		<<elseif $NPCList[0].penis is "vagina">><<creampie "self" "vagina">>
			<<switch random(1, 7)>>
			<<case 1 2 3>>
				<<He>> thrusts deeply into your <<pussy>> as <<he>> cums, holding <<his>> cock deep in your womb. Semen splashes inside your <<pussy>> as you drive back against <<himstop>>
				<br><br>
				<<vaginalejacstat>><<ejacstat>><<set $hygiene += 500>><<set $vaginasemen += 1>>
			<<case 4 5 6>>
				<<He>> quiets and pounds <<his>> cock into you as <<he>> cums. Semen fills your <<pussy>> as you push back against the wall.
				<br><br>
				<<vaginalejacstat>><<ejacstat>><<set $hygiene += 500>><<set $vaginasemen += 1>>
			<<case 7>>
				<<He>> convulses and grinds into on your cunt as <<he>> cums, smashing your <<clit>> and sending thick waves of cum into your <<pussystop>> Semen oozes from your vagina and down your legs, pooling around your knees. "I just love fucking faceless wet cunts."
				<br><br>
				<<vaginalentranceejacstat>><<ejacstat>><<set $hygiene += 500>><<set $vaginaoutsidesemen += 1>>
				<<thighejacstat>><<ejacstat>><<set $hygiene += 500>><<set $thighsemen += 1>>
			<</switch>>
		<<elseif $NPCList[0].penis is "cheeks">>
			<<switch random(1, 7)>>
			<<case 1 2 3>>
				<<He>> shakes as <<he>> cums, withdrawing <<his>> cock from your cheeks and ejaculating onto your ass.
				<br><br>
				<<bottomejacstat>><<ejacstat>><<set $hygiene += 500>><<set $bottomsemen += 1>>
			<<case 4 5 6>>
				<<He>> smash hard against the wall, ejaculating between your cheeks.
				<br><br>
				<<bottomejacstat>><<ejacstat>><<set $hygiene += 500>><<set $bottomsemen += 1>>
			<<case 7>>
				<<He>> grunts as <<he>> cums. You feel a flood of warm cum dripping down your ass and crotch.
				<br><br>
				<<bottomejacstat>><<ejacstat>><<set $hygiene += 1000>><<set $bottomsemen += 2>>
			<</switch>>
		<<elseif $NPCList[0].penis is "anusentrance">>
			<<switch random(1, 7)>>
			<<case 1 2 3>>
				<<He>> strokes <<his>> cock, ejaculating onto your bottom. Semen drips down your butt and into your crack.
				<br><br>
				<<bottomejacstat>><<ejacstat>><<set $hygiene += 500>><<set $bottomsemen += 1>>
			<<case 4 5 6>>
				<<He>> strokes <<his>> cock and quietly ejaculates onto your ass. You feel semen dripping down your crack.
				<br><br>
				<<bottomejacstat>><<ejacstat>><<set $hygiene += 500>><<set $bottomsemen += 1>>
			<<case 7>>
				<<He>> moans and strokes <<his>> cock as <<he>> cums; you feel the splash of wet semen cover your ass and drip down your crotch.
				<br><br>
				<<bottomejacstat>><<ejacstat>><<set $hygiene += 1000>><<set $bottomsemen += 2>>
			<</switch>>
		<<elseif $NPCList[0].penis is "anusimminent">>
			<<switch random(1, 7)>>
			<<case 1 2 3>>
				<<He>> cums before <<he>> can penetrate your wriggling ass, ejaculating on the outside. You feel semen coat your ass and drip warmly down your crack.
				<br><br>
				<<bottomejacstat>><<ejacstat>><<set $hygiene += 500>><<set $bottomsemen += 1>>
			<<case 4 5 6>>
				<<He>> strokes <<his>> cock and ejaculates onto your ass before <<he>> can penetrate you, sending streams of semen running down your crack; <<he>> groans, disappointed.
				<br><br>
				<<bottomejacstat>><<ejacstat>><<set $hygiene += 500>><<set $bottomsemen += 1>>
			<<case 7>>
				<<He>> moans and strokes <<his>> cock as <<he>> cums, you feel a flood of semen on your ass and crotch.
				<br><br>
				<<bottomejacstat>><<ejacstat>><<set $hygiene += 1000>><<set $bottomsemen += 2>>
			<</switch>>
		<<elseif $NPCList[0].penis is "anus">><<creampie "self" "anus">>
			<<switch random(1, 7)>>
			<<case 1 2 3>>
				<<He>> moans, pounding your ass as <<he>> cums. You groan as semen streams into your asshole.
				<br><br>
				<<analejacstat>><<ejacstat>><<set $hygiene += 500>><<set $anussemen += 1>>
			<<case 4 5 6>>
				<<He>> pushes hard into your <<bottom>> as <<he>> cums, and you mash your <<bottom>> against the wall in response. Semen fills you as moan with pleasure.
				<br><br>
				<<analejacstat>><<ejacstat>><<set $hygiene += 500>><<set $anussemen += 1>>
			<<case 7>>
				<<He>> convulses and with a final shove, cums in your ass. Thick waves of semen pump into you. <span class="blue">You gasp as your ass overflows;</span> cum oozes from your ass and runs down your legs. "I can't see your face, but I bet you love being fucked in the ass."
				<br><br>
				<<analejacstat>><<ejacstat>><<set $hygiene += 500>><<set $anussemen += 1>>
				<<thighejacstat>><<ejacstat>><<set $hygiene += 500>><<set $thighsemen += 1>>
			<</switch>>
		<<elseif $NPCList[0].penis is "chest">>
			<<switch random(1, 7)>>
			<<case 1 2 3>>
				<<He>> moans as <<he>> cums, ejaculating onto your <<breasts>>.
				<br><br>
				<<chestejacstat>><<ejacstat>><<set $hygiene += 500>><<set $chestsemen += 1>>
			<<case 4 5 6>>
				<<He>> strokes the tip of <<his>> cock between your <<breasts>> and wordlessly ejaculates onto them. Your <<breasts>> cool as semen slides down your body.
				<br><br>
				<<chestejacstat>><<ejacstat>><<set $hygiene += 500>><<set $chestsemen += 1>>
			<<case 7>>
				<<He>> bears down on your <<breastscomma>> grunting as <<he>> cums; semen shoots between your <<breasts>> and onto the wall.
				<br><br>
				<<chestejacstat>><<ejacstat>><<set $hygiene += 500>><<set $chestsemen += 1>>
			<</switch>>
		<<elseif $NPCList[0].penis is "mouthentrance">>
			<<switch random(1, 7)>>
			<<case 1 2 3>>
				<<He>> moans, stroking <<his>> cock and ejaculating onto your face.
				<br><br>
				<<faceejacstat>><<ejacstat>><<set $hygiene += 500>><<set $facesemen += 1>>
			<<case 4 5 6>>
				<<He>> strokes <<his>> cock and ejaculates onto your face. Warm cums drips down your forehead and nose.
				<br><br>
				<<faceejacstat>><<ejacstat>><<set $hygiene += 500>><<set $facesemen += 1>>
			<<case 7>>
				<<He>> grips <<his>> cock tightly, working it while aiming though the hole straight at your mouth. <span class="pink">You splutter and gag as thick ropes of cum push past your lips and into your mouth.</span>
				<br><br>
				<<faceejacstat>><<ejacstat>><<set $hygiene += 500>><<set $facesemen += 1>>
				<<oralejacstat>><<ejacstat>><<set $hunger -= 200>><<set $thirst -= 200>><<set $mouthsemen += 1>>
				<br><br>
			<</switch>>
		<<elseif $NPCList[0].penis is "mouthimminent">>
			<<switch random(1, 7)>>
			<<case 1 2 3>>
				<<He>> gasps, ejaculating onto your lips as you barely brush against the tip of <<his>> penis.
				<br><br>
				<<faceejacstat>><<ejacstat>><<set $hygiene += 500>><<set $facesemen += 1>>
			<<case 4 5 6>>
				<<He>> brushes <<his>> cock against your face, causing <<him>> to ejaculate early. Cums drips down your lips and chin; <<he>> sounds frustrated.
				<br><br>
				<<oralejacstat>><<ejacstat>><<set $hunger -= 200>><<set $thirst -= 200>><<set $mouthsemen += 1>>
			<<case 7>>
				<<He>> cums before <<he>> can enter your mouth. Thick ropes of cum cover your cheeks, chin, and into your waiting mouth. <<He>> sounds frustrated.
				<br><br>
				<<faceejacstat>><<ejacstat>><<set $hygiene += 500>><<set $facesemen += 1>>
				<<oralejacstat>><<ejacstat>><<set $hunger -= 200>><<set $thirst -= 200>><<set $mouthsemen += 1>>
			<</switch>>
		<<elseif $NPCList[0].penis is "mouth">><<creampie "self" "mouth">>
			<<switch random(1, 7)>>
			<<case 1 2 3>>
				<<He>> unexpectedly shoves <<his>> cock down your throat as <<he>> cums. You gag as semen streams down your throat, forcing you to swallow.
				<br><br>
				<<oralejacstat>><<ejacstat>><<set $hunger -= 200>><<set $thirst -= 200>><<set $mouthsemen += 1>>
			<<case 4 5 6>>
				<<He>> puts <<his>> hands on the wall as <<he>> mashes <<his>> cock into your mouth, ejaculating with a moan. You gag as cum fills your mouth and drips down your chin.
				<br><br>
			<<oralejacstat>><<ejacstat>><<set $hunger -= 200>><<set $thirst -= 200>><<set $mouthsemen += 1>>
			<<case 7>>
				<<He>> wildly thrusts <<his>> cock down your throat as <<he>> cums, shaking the entire wall. <span class="pink">Semen streams down your throat,</span> fills your mouth and covers your face as <<he>> flails.
				<<faceejacstat>><<ejacstat>><<set $hygiene += 500>><<set $facesemen += 1>>
				<<oralejacstat>><<ejacstat>><<set $hunger -= 200>><<set $thirst -= 200>><<set $mouthsemen += 1>>
				<br><br>
			<</switch>>
		<<elseif $NPCList[0].penis is "feet">>
			<<switch random(1, 7)>>
			<<case 1 2 3>>
				<<He>> groans as <<he>> cums; ejaculate covers your feet.
				<br><br>
				<<feetejacstat>><<ejacstat>><<set $hygiene += 500>><<set $feetsemen += 1>>
			<<case 4 5 6>>
				<<He>> quietly cums on your feet, slickening them with semen.
				<br><br>
				<<feetejacstat>><<ejacstat>><<set $hygiene += 500>><<set $feetsemen += 1>>
			<<case 7>>
				<<He>> grunts and thrusts <<his>> cock between your feet as <<he>> cums, splattering cum on your feet and legs in the process, and pooling around your knees.
				<br><br>
				<<feetejacstat>><<ejacstat>><<set $hygiene += 500>><<set $feetsemen += 1>>
				<<thighejacstat>><<ejacstat>><<set $hygiene += 500>><<set $thighsemen += 1>>
			<</switch>>
		<<elseif $NPCList[0].penis is "leftarm">>
			<<switch random(1, 7)>>
			<<case 1 2 3>>
				<<He>> groans as <<he>> cums, penis sliding hotly in your hand and covering it with cum.
				<br><br>
				<<handejacstat>><<ejacstat>><<set $hygiene += 500>><<set $leftarmsemen += 1>>
			<<case 4 5 6>>
				<<He>> quietly cums on your hand. Semen drips down your fingers. "I'd rather fuck your mouth next time..."
				<br><br>
				<<handejacstat>><<ejacstat>><<set $hygiene += 500>><<set $leftarmsemen += 1>>
			<<case 7>>
				<<He>> spasms and moans, shooting thick streams of cum and splattering your <<breasts>> in the process.
				<br><br>
				<<handejacstat>><<ejacstat>><<set $hygiene += 500>><<set $leftarmsemen += 1>>
				<<chestejacstat>><<ejacstat>><<set $hygiene += 500>><<set $chestsemen += 1>>
			<</switch>>
		<<elseif $NPCList[0].penis is "rightarm">>
			<<switch random(1, 7)>>
			<<case 1 2 3>>
				<<He>> groans as <<he>> cums, penis sliding hotly in your hand and covering it with cum.
				<br><br>
				<<handejacstat>><<ejacstat>><<set $hygiene += 500>><<set $rightarmsemen += 1>>
			<<case 4 5 6>>
				<<He>> quietly cums on your hand. Semen drips down your fingers. "I'd rather fuck your mouth next time..."
				<br><br>
				<<handejacstat>><<ejacstat>><<set $hygiene += 500>><<set $rightarmsemen += 1>>
			<<case 7>>
				<<He>> spasms and moans, shooting thick streams of cum and splattering your <<breasts>> in the process.
				<br><br>
				<<handejacstat>><<ejacstat>><<set $hygiene += 500>><<set $rightarmsemen += 1>>
				<<chestejacstat>><<ejacstat>><<set $hygiene += 500>><<set $chestsemen += 1>>
			<</switch>>
		<<elseif $NPCList[0].penis is 0>>
			<<switch random(1, 3)>>
			<<case 1 2>>
				<<He>> groans and rubs <<his>> cock, spraying your face with ejaculate through the hole.
				<br><br>
				<<faceejacstat>><<ejacstat>><<set $hygiene += 500>><<set $facegoo += 1>>
			<<case 3>>
				<<He>> moans as he ejaculates onto the ground.
				<br><br>
			<</switch>>
		<<elseif $NPCList[0].penis is "otheranus">>
			<<switch random(1, 7)>>
			<<case 1 2 3>>
				<<He>> groans as you fuck <<his>> ass.
				<br><br>
				<<bottomejacstat>><<ejacstat>><<set $hygiene += 500>><<set $bottomsemen += 1>>
			<<case 4 5>>
				<<He>> moans as you pound <<his>> ass, and ejaculates on the ground.
				<br><br>
			<<case 6 7>>
				<<He>> sighs as <<he>> ejaculates onto <<his>> own chest.
				<br><br>
			<</switch>>
		<<elseif $NPCList[0].penis is "otheranusfrot" or $NPCList[0].penis is "otheranusentrance" or $NPCList[0].penis is "otheranusimminent">>
			<<switch random(1, 7)>>
			<<case 1 2 3>>
				<<He>> noisily cums as you fuck <<his>> cheeks.
				<br><br>
			<<case 4 5>>
				<<He>> moans as you rub against <<his>> anus, and ejaculates on the ground; <<he>> seems disappointed.
				<br><br>
			<<case 6 7>>
				<<He>> sighs as <<he>> ejaculates onto <<his>> own chest.
				<br><br>
			<</switch>>
		<!-- Special case male PC being orally serviced by male NPC with no other contact -->
		<<elseif $NPCList[0].mouth is "penis">>
			<<switch random(1, 7)>>
			<<case 1 2 3>>
				<<He>> cums as he pleasures you with <<his>> mouth.
				<br><br>
			<<case 4 5>>
				<<He>> cums on the ground, then stops abruptly.
				<br><br>
			<<case 6 7>>
				<<He>> pushes against the wall, shoving your cock into <<his>> throat; <<he>> ejaculates on <<his>> chest as <<he>> throats your cock.
				<br><br>
			<</switch>>
		<<elseif $NPCList[0].penis is "othermouth">>
			<<He>> shakes with arousal as <<he>> cums.
			<br><br>
		<</if>>
	<<else>><!-- Start non-consensual -->
		<<if $NPCList[0].penis is "idle">>
			<<He>> groans as a wet patch forms on <<his>> trousers. You barely stifle a laugh at the pathetic display.
			<br><br>
		<<elseif $NPCList[0].penis is "mouthentrance">>
			<<switch $NPCList[0].penissize>>
			<<case 4>>
				<<He>> grips <<his>> $NPCList[0].penisdesc tightly, working it while aiming though the hold straight at your mouth. <span class="pink">You splutter and gag as thick ropes of cum push past your clenched lips and into your mouth.</span> "You need to learn to swallow, bitch."
				<br><br>
				<<faceejacstat>><<ejacstat>><<set $hygiene += 500>><<set $facesemen += 1>>
				<<oralejacstat>><<ejacstat>><<set $hunger -= 200>><<set $thirst -= 200>><<set $mouthsemen += 1>>
			<<case 1>>
				<<He>> moans as a pathetic dribble of cum leaks from <<his>> shaft. It's all you can do to keep from laughing.
				<br><br>
			<<default>>
				<<switch random(1, 7)>>
				<<case 1 2 3>>
					<<He>> moans, stroking <<his>> $NPCList[0].penisdesc and ejaculating onto your face. "You must be so embarrassed being used like this."
					<br><br>
					<<faceejacstat>><<ejacstat>><<set $hygiene += 500>><<set $facesemen += 1>>
				<<case 4 5 6>>
					<<He>> strokes <<his>> $NPCList[0].penisdesc and ejaculates onto your face. Warm cums drips down your forehead and nose. "I bet you enjoy being used like this."
					<br><br>
					<<faceejacstat>><<ejacstat>><<set $hygiene += 500>><<set $facesemen += 1>>
				<<default>>
					<<He>> moans as he ejaculates onto your lips. <<He>> reaches through the wall, <span class="purple"> shoving <<his>> fingers down your throat.</span> You gag and retch as <<he>> laughs. "Next time I'm throating you bitch; better train up."
					<<gstress>><<gtrauma>><<gpain>><<violence 3>><<bruise neck>><<hitstat>>
					<br><br>
				<</switch>>
			<</switch>>
		<<elseif $NPCList[0].penis is "mouthimminent">>
			<<switch $NPCList[0].penissize>>
			<<case 4>>
				<<He>> cums before <<he>> can enter your mouth. Thick ropes of cum shoot from <<his>> $NPCList[0].penisdesc and cover your cheeks, chin, and into your waiting mouth. <<He>> sounds frustrated.
				<br><br>
				<<faceejacstat>><<ejacstat>><<set $hygiene += 500>><<set $facesemen += 1>>
				<<oralejacstat>><<ejacstat>><<set $hunger -= 200>><<set $thirst -= 200>><<set $mouthsemen += 1>>
			<<case 1>>
				<<He>> cums before <<he>> can enter your mouth. A dribble of cum leaks from <<his>> $NPCList[0].penisdesc and onto your lower lip. You hear him stomp away, frustrated.
				<br><br>
			<<default>>
				<<switch random(1, 7)>>
				<<case 1 2 3>>
					<<He>> gasps, ejaculating onto your lips as you barely brush against the tip of <<his>> penis.
					<br><br>
					<<faceejacstat>><<ejacstat>><<set $hygiene += 500>><<set $facesemen += 1>>
				<<case 4 5 6>>
					<<He>> brushes <<his>> $NPCList[0].penisdesc against your face, causing <<him>> to ejaculate early. Cums drips down your lips and chin; frustrated, <<he>> wipes the cum off your chin and shoves it in your mouth.
					<br><br>
					<<oralejacstat>><<ejacstat>><<set $hunger -= 200>><<set $thirst -= 200>><<set $mouthsemen += 1>>
				<<default>>
					<<He>> moans as he ejaculates onto your lips. <<He>> reaches through the wall, <span class="purple"> shoving <<his>> fingers down your throat.</span> You gag and retch as <<he>> laughs. "Next time I'm throating you bitch; better train up."
					<<gstress>><<gtrauma>><<gpain>><<violence 3>><<bruise neck>><<hitstat>>
					<br><br>
				<</switch>>
			<</switch>>
		<<elseif $NPCList[0].penis is "mouth">><<creampie "self" "mouth">>
			<<switch $NPCList[0].penissize>>
			<<case 4>>
				<<He>> thrusts down your throat, gagging you with <<his>> $NPCList[0].penisdesc as <<he>> cums and shaking the entire wall. <span class="pink">You whimper as semen streams down your throat,</span> and fills your mouth. "I bet you enjoy being tied up and face fucked."
				<<oralejacstat>><<ejacstat>><<set $hunger -= 200>><<set $thirst -= 200>><<set $mouthsemen += 1>>
				<<gstress>><<gtrauma>><<gpain>><<violence 3>><<bruise neck>><<hitstat>>
				<br><br>
			<<case 1>>
				<<He>> bears into the wall with <<his>> pelvis, try to shove <<his>> $NPCList[0].penisdesc as far into your mouth as possible. It's not much, and a tiny dribble of semen leaks from the tip.
			<<default>>
				<<switch random(1, 7)>>
				<<case 1 2 3>>
					<<He>> unexpectedly shoves <<his>> $NPCList[0].penisdesc down your throat as <<he>> cums. You gag and retch as unwanted semen streams down your throat, forcing you to swallow.
					<br><br>
					<<oralejacstat>><<ejacstat>><<set $hunger -= 200>><<set $thirst -= 200>><<set $mouthsemen += 1>>
				<<case 4 5 6>>
					<<He>> puts <<his>> hands on the wall as <<he>> mashes <<his>> $NPCList[0].penisdesc into your mouth, ejaculating with a moan. You gag as cum fills your mouth and drips down your chin.
					<br><br>
					<<oralejacstat>><<ejacstat>><<set $hunger -= 200>><<set $thirst -= 200>><<set $mouthsemen += 1>>
				<<case 7>>
					<<He>> pinches the base of <<his>> $NPCList[0].penisdesc as <<he>> groans, shooting cum down the back of your throat. You gag as cum flows down your throat, forcing you to swallow.
					<br><br>
					<<oralejacstat>><<ejacstat>><<set $hunger -= 200>><<set $thirst -= 200>><<set $mouthsemen += 1>>
				<</switch>>
			<</switch>>
		<<elseif $NPCList[0].penis is 0>>
			<<switch random(1, 3)>>
			<<case 1 2>>
				<<He>> groans and rubs <<his>> $NPCList[0].penisdesc, spraying your face with ejaculate through the hole.
				<br><br>
				<<faceejacstat>><<ejacstat>><<set $hygiene += 500>><<set $facegoo += 1>>
			<<case 3>>
				<<He>> moans as he ejaculates onto the ground. <<He>> reaches through the wall, <span class="purple"> shoving <<his>> fingers down your throat.</span> You gag and retch as <<he>> laughs. "Next time I'm throating you bitch; better train up."
				<<gstress>><<gtrauma>><<gpain>><<violence 3>><<bruise neck>><<hitstat>>
				<br><br>
			<</switch>>
		<<else>>
			<<He>> collapses in orgasmic bliss.
		<</if>>
	<</if>>
<</if>>

<!-- No finishing moves for gloryhole -->

<</nobr>><</widget>>